<svg width="25" height="26" viewBox="0 0 25 26" fill="none" xmlns="http://www.w3.org/2000/svg">
<g clip-path="url(#clip0_420_2397)">
<path d="M16.075 12.6445C16.075 13.407 15.5125 14.032 14.8 14.032C14.1 14.032 13.525 13.407 13.525 12.6445C13.525 11.882 14.0875 11.257 14.8 11.257C15.5125 11.257 16.075 11.882 16.075 12.6445ZM10.2375 11.257C9.525 11.257 8.9625 11.882 8.9625 12.6445C8.9625 13.407 9.5375 14.032 10.2375 14.032C10.95 14.032 11.5125 13.407 11.5125 12.6445C11.525 11.882 10.95 11.257 10.2375 11.257ZM23.4375 3.34453V25.7695C20.2884 22.9866 21.2955 23.9078 17.6375 20.507L18.3 22.8195H4.125C2.7125 22.8195 1.5625 21.6695 1.5625 20.2445V3.34453C1.5625 1.91953 2.7125 0.769531 4.125 0.769531H20.875C22.2875 0.769531 23.4375 1.91953 23.4375 3.34453ZM19.875 15.1945C19.875 11.1695 18.075 7.90703 18.075 7.90703C16.275 6.55703 14.5625 6.59453 14.5625 6.59453L14.3875 6.79453C16.5125 7.44453 17.5 8.38203 17.5 8.38203C14.5307 6.75464 11.0428 6.75435 8.1625 8.01953C7.7 8.23203 7.425 8.38203 7.425 8.38203C7.425 8.38203 8.4625 7.39453 10.7125 6.74453L10.5875 6.59453C10.5875 6.59453 8.875 6.55703 7.075 7.90703C7.075 7.90703 5.275 11.1695 5.275 15.1945C5.275 15.1945 6.325 17.007 9.0875 17.0945C9.0875 17.0945 9.55 16.532 9.925 16.057C8.3375 15.582 7.7375 14.582 7.7375 14.582C7.92139 14.7107 8.22461 14.8776 8.25 14.8945C10.3599 16.0761 13.3568 16.4632 16.05 15.332C16.4875 15.1695 16.975 14.932 17.4875 14.5945C17.4875 14.5945 16.8625 15.6195 15.225 16.082C15.6 16.557 16.05 17.0945 16.05 17.0945C18.8125 17.007 19.875 15.1945 19.875 15.1945Z" fill="white" fill-opacity="0.5"/>
</g>
<defs>
<clipPath id="clip0_420_2397">
<rect width="25" height="25" fill="white" transform="translate(0 0.769531)"/>
</clipPath>
</defs>
</svg>
